{
    "fluentMethods": true,
    "relationships": [
        {
            "relationshipName": "usuario",
            "otherEntityName": "usuario",
            "relationshipType": "many-to-one",
            "otherEntityField": "id"
        },
        {
            "relationshipName": "subRutina",
            "otherEntityName": "subRutina",
            "relationshipType": "many-to-one",
            "otherEntityField": "id"
        }
    ],
    "fields": [
        {
            "fieldName": "fechaAsistencia",
            "fieldType": "ZonedDateTime",
            "fieldValidateRules": [
                "required"
            ]
        },
        {
            "fieldName": "diaAsistencia",
            "fieldType": "Integer",
            "fieldValidateRules": [
                "required"
            ]
        },
        {
            "fieldName": "estadoRegistroActividad",
            "fieldType": "Boolean",
            "fieldValidateRules": [
                "required"
            ]
        }
    ],
    "changelogDate": "20180618190636",
    "javadoc": "Class RegistroActividadRutina.\n@author Bulletproof.",
    "entityTableName": "registro_actividad_rutina",
    "dto": "mapstruct",
    "pagination": "pagination",
    "service": "serviceClass",
    "jpaMetamodelFiltering": false
}