{
    "fluentMethods": true,
    "relationships": [
        {
            "relationshipType": "one-to-many",
            "relationshipName": "subrutinaRutina",
            "otherEntityName": "subRutina",
            "otherEntityRelationshipName": "rutina"
        },
        {
            "relationshipType": "one-to-many",
            "relationshipName": "rutinaUsuario",
            "otherEntityName": "usuario",
            "otherEntityRelationshipName": "rutina"
        }
    ],
    "fields": [
        {
            "fieldName": "usuarioCreadorRutina",
            "fieldType": "Integer"
        },
        {
            "fieldName": "nombreRutina",
            "fieldType": "String",
            "fieldValidateRules": [
                "maxlength",
                "required"
            ],
            "fieldValidateRulesMaxlength": 999
        },
        {
            "fieldName": "cantDiasRutina",
            "fieldType": "Integer",
            "fieldValidateRules": [
                "min",
                "max"
            ],
            "fieldValidateRulesMin": 1,
            "fieldValidateRulesMax": 500
        },
        {
            "fieldName": "estadoRutina",
            "fieldType": "Boolean",
            "fieldValidateRules": [
                "required"
            ]
        }
    ],
    "changelogDate": "20180618190623",
    "javadoc": "Class Rutina.\n@author Bulletproof.",
    "entityTableName": "rutina",
    "dto": "mapstruct",
    "pagination": "pagination",
    "service": "serviceClass",
    "jpaMetamodelFiltering": false
}